ISSS608 VAA Project - Working Script
…
maxYear <- max(year(vaByMarket$Period))
maxYear

[1] 2022

to find the country where most visitors are from:

visitorsByCountry <- vaByMarket %>%
  group_by(Country) %>%
  summarize(Visitors = sum(Visitors, na.rm = TRUE))
  
visitorsByCountry <- visitorsByCountry[order(visitorsByCountry$Visitors, decreasing = TRUE), ]
visitorsByCountry

# A tibble: 52 × 2
   Country        Visitors
   <chr>             <dbl>
 1 Indonesia      50918113
 2 China          34648115
 3 Japan          29394650
 4 Australia      24989059
 5 Malaysia       21009122
 6 India          20987273
 7 United Kingdom 15116531
 8 USA            14620454
 9 South Korea    11942521
10 Hong Kong SAR  11765677
# … with 42 more rows
…
